{
	"info": {
		"_postman_id": "bf92a6e2-c1ff-436e-8fe0-98e7a3cebede",
		"name": "Spring Rest Hibernate Student CRUD Project",
		"schema": "https://schema.getpostman.com/json/collection/v2.1.0/collection.json"
	},
	"item": [
		{
			"name": "http://localhost:8080/HelloSpringRest_war_exploded/departmentsList",
			"protocolProfileBehavior": {
				"disableBodyPruning": true
			},
			"request": {
				"method": "GET",
				"header": [
					{
						"key": "Content-Type",
						"name": "Content-Type",
						"value": "application/json",
						"type": "text"
					}
				],
				"body": {
					"mode": "raw",
					"raw": "{\n\t\"surname\":\"Aslan\"\n\n}\n\t\n"
				},
				"url": {
					"raw": "http://localhost:8080/HelloSpringRest_war_exploded/departmentsList",
					"protocol": "http",
					"host": [
						"localhost"
					],
					"port": "8080",
					"path": [
						"HelloSpringRest_war_exploded",
						"departmentsList"
					]
				}
			},
			"response": []
		},
		{
			"name": "http://localhost:8080/HelloSpringRest_war_exploded/studentsList",
			"protocolProfileBehavior": {
				"disableBodyPruning": true
			},
			"request": {
				"method": "GET",
				"header": [
					{
						"key": "Content-Type",
						"name": "Content-Type",
						"value": "application/json",
						"type": "text"
					}
				],
				"body": {
					"mode": "raw",
					"raw": "{\n\t\"surname\":\"Aslan\"\n\n}\n\t\n"
				},
				"url": {
					"raw": "http://localhost:8080/HelloSpringRest_war_exploded/studentsList",
					"protocol": "http",
					"host": [
						"localhost"
					],
					"port": "8080",
					"path": [
						"HelloSpringRest_war_exploded",
						"studentsList"
					]
				}
			},
			"response": []
		},
		{
			"name": "http://localhost:8080/HelloSpringRest_war_exploded/studentsSave",
			"request": {
				"method": "POST",
				"header": [
					{
						"key": "Content-Type",
						"name": "Content-Type",
						"value": "application/json",
						"type": "text"
					}
				],
				"body": {
					"mode": "raw",
					"raw": " {\n        \"name\": \"ALİ\",\n        \"surname\": \"AKTAŞ\",\n        \"department\": {\n            \"id\": 19,\n            \"name\": \"Computer Engineering\",\n            \"studentDtoList\": null\n        },\n        \"adress\": {\n            \"city\": \"KARABÜK\",\n            \"country\": \"TURKEY\"\n        }\n    }\n\t\n"
				},
				"url": {
					"raw": "http://localhost:8080/HelloSpringRest_war_exploded/studentsSave",
					"protocol": "http",
					"host": [
						"localhost"
					],
					"port": "8080",
					"path": [
						"HelloSpringRest_war_exploded",
						"studentsSave"
					]
				}
			},
			"response": []
		},
		{
			"name": "http://localhost:8080/HelloSpringRest_war_exploded/departmentsSave",
			"request": {
				"method": "POST",
				"header": [
					{
						"key": "Content-Type",
						"name": "Content-Type",
						"value": "application/json",
						"type": "text"
					}
				],
				"body": {
					"mode": "raw",
					"raw": "{\n      \n        \"name\": \"ENGİNEERİNG\",\n        \"studentDtoList\": [\n            {\n                \"name\": \"SEVGI\",\n                \"surname\": \"GÜNDOGDU\",\n                \"department\": null,\n                \"adress\": {\n                    \"city\": \"İZMİR\",\n                    \"country\": \"TURKEY\"\n                }\n            }\n        ]\n    }\n"
				},
				"url": {
					"raw": "http://localhost:8080/HelloSpringRest_war_exploded/departmentsSave",
					"protocol": "http",
					"host": [
						"localhost"
					],
					"port": "8080",
					"path": [
						"HelloSpringRest_war_exploded",
						"departmentsSave"
					]
				}
			},
			"response": []
		},
		{
			"name": "http://localhost:8080/HelloSpringRest_war_exploded//departmentDTOUpdate/20",
			"request": {
				"method": "PUT",
				"header": [
					{
						"key": "Content-Type",
						"name": "Content-Type",
						"value": "application/json",
						"type": "text"
					}
				],
				"body": {
					"mode": "raw",
					"raw": "{\n      \n        \"name\": \"COMPUTER ENGİNEERİNG\",\n        \"studentDtoList\": [\n            {\n                \"name\": \"SEVGI\",\n                \"surname\": \"GÜNDOGDU\",\n                \"department\": null,\n                \"adress\": {\n                    \"city\": \"İZMİR\",\n                    \"country\": \"TURKEY\"\n                }\n            }\n        ]\n    }\n"
				},
				"url": {
					"raw": "http://localhost:8080/HelloSpringRest_war_exploded//departmentDTOUpdate/20",
					"protocol": "http",
					"host": [
						"localhost"
					],
					"port": "8080",
					"path": [
						"HelloSpringRest_war_exploded",
						"",
						"departmentDTOUpdate",
						"20"
					]
				}
			},
			"response": []
		},
		{
			"name": "http://localhost:8080/HelloSpringRest_war_exploded/studentDTOUpdate/34",
			"request": {
				"method": "PUT",
				"header": [
					{
						"key": "Content-Type",
						"name": "Content-Type",
						"value": "application/json",
						"type": "text"
					}
				],
				"body": {
					"mode": "raw",
					"raw": "{\n      \"name\":\"SEVIM\"\n}\n"
				},
				"url": {
					"raw": "http://localhost:8080/HelloSpringRest_war_exploded/studentDTOUpdate/34",
					"protocol": "http",
					"host": [
						"localhost"
					],
					"port": "8080",
					"path": [
						"HelloSpringRest_war_exploded",
						"studentDTOUpdate",
						"34"
					]
				}
			},
			"response": []
		},
		{
			"name": "http://localhost:8080/HelloSpringRest_war_exploded/departments",
			"protocolProfileBehavior": {
				"disableBodyPruning": true
			},
			"request": {
				"method": "GET",
				"header": [
					{
						"key": "Content-Type",
						"name": "Content-Type",
						"value": "application/json",
						"type": "text"
					}
				],
				"body": {
					"mode": "raw",
					"raw": "{\n      \"name\":\"SEVIM\"\n}\n"
				},
				"url": {
					"raw": "http://localhost:8080/HelloSpringRest_war_exploded/departments",
					"protocol": "http",
					"host": [
						"localhost"
					],
					"port": "8080",
					"path": [
						"HelloSpringRest_war_exploded",
						"departments"
					]
				}
			},
			"response": []
		},
		{
			"name": "http://localhost:8080/HelloSpringRest_war_exploded/departments/17/students",
			"request": {
				"method": "POST",
				"header": [
					{
						"key": "Content-Type",
						"name": "Content-Type",
						"value": "application/json",
						"type": "text"
					}
				],
				"body": {
					"mode": "raw",
					"raw": "{\n      \"name\":\"SEVIM\",\n      \"surname\":\"AKTAS\"\n      \n}\n"
				},
				"url": {
					"raw": "http://localhost:8080/HelloSpringRest_war_exploded/departments/17/students",
					"protocol": "http",
					"host": [
						"localhost"
					],
					"port": "8080",
					"path": [
						"HelloSpringRest_war_exploded",
						"departments",
						"17",
						"students"
					]
				}
			},
			"response": []
		},
		{
			"name": "http://localhost:8080/HelloSpringRest_war_exploded/departments/16",
			"protocolProfileBehavior": {
				"disableBodyPruning": true
			},
			"request": {
				"method": "GET",
				"header": [
					{
						"key": "Content-Type",
						"name": "Content-Type",
						"value": "application/json",
						"type": "text"
					}
				],
				"body": {
					"mode": "raw",
					"raw": "{\n      \"name\":\"SEVIM\",\n      \"surname\":\"AKTAS\"\n      \n}\n"
				},
				"url": {
					"raw": "http://localhost:8080/HelloSpringRest_war_exploded/departments/16",
					"protocol": "http",
					"host": [
						"localhost"
					],
					"port": "8080",
					"path": [
						"HelloSpringRest_war_exploded",
						"departments",
						"16"
					]
				}
			},
			"response": []
		},
		{
			"name": "http://localhost:8080/HelloSpringRest_war_exploded/departments/16",
			"request": {
				"method": "PUT",
				"header": [
					{
						"key": "Content-Type",
						"name": "Content-Type",
						"value": "application/json",
						"type": "text"
					}
				],
				"body": {
					"mode": "raw",
					"raw": "{\n     \"deptName\":\"Computer Engineering\"\n      \n}\n"
				},
				"url": {
					"raw": "http://localhost:8080/HelloSpringRest_war_exploded/departments/16",
					"protocol": "http",
					"host": [
						"localhost"
					],
					"port": "8080",
					"path": [
						"HelloSpringRest_war_exploded",
						"departments",
						"16"
					]
				}
			},
			"response": []
		},
		{
			"name": "http://localhost:8080/HelloSpringRest_war_exploded//departmentsDelete/19",
			"request": {
				"method": "DELETE",
				"header": [
					{
						"key": "Content-Type",
						"name": "Content-Type",
						"value": "application/json",
						"type": "text"
					}
				],
				"body": {
					"mode": "raw",
					"raw": "{\n     \"deptName\":\"Computer Engineering\"\n      \n}\n"
				},
				"url": {
					"raw": "http://localhost:8080/HelloSpringRest_war_exploded//departmentsDelete/19",
					"protocol": "http",
					"host": [
						"localhost"
					],
					"port": "8080",
					"path": [
						"HelloSpringRest_war_exploded",
						"",
						"departmentsDelete",
						"19"
					]
				}
			},
			"response": []
		},
		{
			"name": "http://localhost:8080/HelloSpringRest_war_exploded/getStudents/14",
			"protocolProfileBehavior": {
				"disableBodyPruning": true
			},
			"request": {
				"method": "GET",
				"header": [
					{
						"key": "Content-Type",
						"name": "Content-Type",
						"value": "application/json",
						"type": "text"
					}
				],
				"body": {
					"mode": "raw",
					"raw": "{\n     \"deptName\":\"Computer Engineering\"\n      \n}\n"
				},
				"url": {
					"raw": "http://localhost:8080/HelloSpringRest_war_exploded/getStudents/14",
					"protocol": "http",
					"host": [
						"localhost"
					],
					"port": "8080",
					"path": [
						"HelloSpringRest_war_exploded",
						"getStudents",
						"14"
					]
				}
			},
			"response": []
		},
		{
			"name": "http://localhost:8080/HelloSpringRest_war_exploded/studentUpdate/29",
			"request": {
				"method": "PUT",
				"header": [
					{
						"key": "Content-Type",
						"name": "Content-Type",
						"value": "application/json",
						"type": "text"
					}
				],
				"body": {
					"mode": "raw",
					"raw": "{\n     \"schoolNumber\":\"145\"\n      \n}\n"
				},
				"url": {
					"raw": "http://localhost:8080/HelloSpringRest_war_exploded/studentUpdate/29",
					"protocol": "http",
					"host": [
						"localhost"
					],
					"port": "8080",
					"path": [
						"HelloSpringRest_war_exploded",
						"studentUpdate",
						"29"
					]
				}
			},
			"response": []
		},
		{
			"name": "http://localhost:8080/HelloSpringRest_war_exploded/studentDelete/29",
			"request": {
				"method": "DELETE",
				"header": [
					{
						"key": "Content-Type",
						"name": "Content-Type",
						"value": "application/json",
						"type": "text"
					}
				],
				"body": {
					"mode": "raw",
					"raw": "{\n     \"schoolNumber\":\"145\"\n      \n}\n"
				},
				"url": {
					"raw": "http://localhost:8080/HelloSpringRest_war_exploded/studentDelete/29",
					"protocol": "http",
					"host": [
						"localhost"
					],
					"port": "8080",
					"path": [
						"HelloSpringRest_war_exploded",
						"studentDelete",
						"29"
					]
				}
			},
			"response": []
		},
		{
			"name": "http://localhost:8080/HelloSpringRest_war_exploded/adressList",
			"protocolProfileBehavior": {
				"disableBodyPruning": true
			},
			"request": {
				"method": "GET",
				"header": [
					{
						"key": "Content-Type",
						"name": "Content-Type",
						"value": "application/json",
						"type": "text"
					}
				],
				"body": {
					"mode": "raw",
					"raw": "\n"
				},
				"url": {
					"raw": "http://localhost:8080/HelloSpringRest_war_exploded/adressList",
					"protocol": "http",
					"host": [
						"localhost"
					],
					"port": "8080",
					"path": [
						"HelloSpringRest_war_exploded",
						"adressList"
					]
				}
			},
			"response": []
		},
		{
			"name": "http://localhost:8080/HelloSpringRest_war_exploded/saveAdress",
			"request": {
				"method": "POST",
				"header": [
					{
						"key": "Content-Type",
						"name": "Content-Type",
						"value": "application/json",
						"type": "text"
					}
				],
				"body": {
					"mode": "raw",
					"raw": "{\n\t\"city\":\"ELAZIG\",\n\t\"country\":\"TURKEY\"\n}\n"
				},
				"url": {
					"raw": "http://localhost:8080/HelloSpringRest_war_exploded/saveAdress",
					"protocol": "http",
					"host": [
						"localhost"
					],
					"port": "8080",
					"path": [
						"HelloSpringRest_war_exploded",
						"saveAdress"
					]
				}
			},
			"response": []
		},
		{
			"name": "http://localhost:8080/HelloSpringRest_war_exploded/adressDTOUpdate/8",
			"request": {
				"method": "PUT",
				"header": [
					{
						"key": "Content-Type",
						"name": "Content-Type",
						"value": "application/json",
						"type": "text"
					}
				],
				"body": {
					"mode": "raw",
					"raw": "{\n\t\"city\":\"DÜZCE\",\n\t\"country\":\"TURKEY\"\n}\n"
				},
				"url": {
					"raw": "http://localhost:8080/HelloSpringRest_war_exploded/adressDTOUpdate/8",
					"protocol": "http",
					"host": [
						"localhost"
					],
					"port": "8080",
					"path": [
						"HelloSpringRest_war_exploded",
						"adressDTOUpdate",
						"8"
					]
				}
			},
			"response": []
		},
		{
			"name": "http://localhost:8080/HelloSpringRest_war_exploded/adress",
			"protocolProfileBehavior": {
				"disableBodyPruning": true
			},
			"request": {
				"method": "GET",
				"header": [
					{
						"key": "Content-Type",
						"name": "Content-Type",
						"value": "application/json",
						"type": "text"
					}
				],
				"body": {
					"mode": "raw",
					"raw": "{\n\t\"city\":\"DÜZCE\",\n\t\"country\":\"TURKEY\"\n}\n"
				},
				"url": {
					"raw": "http://localhost:8080/HelloSpringRest_war_exploded/adress",
					"protocol": "http",
					"host": [
						"localhost"
					],
					"port": "8080",
					"path": [
						"HelloSpringRest_war_exploded",
						"adress"
					]
				}
			},
			"response": []
		},
		{
			"name": "http://localhost:8080/HelloSpringRest_war_exploded/adress/7",
			"protocolProfileBehavior": {
				"disableBodyPruning": true
			},
			"request": {
				"method": "GET",
				"header": [
					{
						"key": "Content-Type",
						"name": "Content-Type",
						"value": "application/json",
						"type": "text"
					}
				],
				"body": {
					"mode": "raw",
					"raw": "{\n\t\"city\":\"DÜZCE\",\n\t\"country\":\"TURKEY\"\n}\n"
				},
				"url": {
					"raw": "http://localhost:8080/HelloSpringRest_war_exploded/adress/7",
					"protocol": "http",
					"host": [
						"localhost"
					],
					"port": "8080",
					"path": [
						"HelloSpringRest_war_exploded",
						"adress",
						"7"
					]
				}
			},
			"response": []
		},
		{
			"name": "http://localhost:8080/HelloSpringRest_war_exploded/adressUpdate/11",
			"request": {
				"method": "PUT",
				"header": [
					{
						"key": "Content-Type",
						"name": "Content-Type",
						"value": "application/json",
						"type": "text"
					}
				],
				"body": {
					"mode": "raw",
					"raw": "{\n\t\"country\":\"TURKEY\"\n}\n"
				},
				"url": {
					"raw": "http://localhost:8080/HelloSpringRest_war_exploded/adressUpdate/11",
					"protocol": "http",
					"host": [
						"localhost"
					],
					"port": "8080",
					"path": [
						"HelloSpringRest_war_exploded",
						"adressUpdate",
						"11"
					]
				}
			},
			"response": []
		},
		{
			"name": "http://localhost:8080/HelloSpringRest_war_exploded/adressDelete/11",
			"request": {
				"method": "DELETE",
				"header": [
					{
						"key": "Content-Type",
						"name": "Content-Type",
						"value": "application/json",
						"type": "text"
					}
				],
				"body": {
					"mode": "raw",
					"raw": "{\n\t\"country\":\"TURKEY\"\n}\n"
				},
				"url": {
					"raw": "http://localhost:8080/HelloSpringRest_war_exploded/adressDelete/11",
					"protocol": "http",
					"host": [
						"localhost"
					],
					"port": "8080",
					"path": [
						"HelloSpringRest_war_exploded",
						"adressDelete",
						"11"
					]
				}
			},
			"response": []
		},
		{
			"name": "http://localhost:8080/HelloSpringRest_war_exploded/adress/7/students",
			"request": {
				"method": "POST",
				"header": [
					{
						"key": "Content-Type",
						"name": "Content-Type",
						"value": "application/json",
						"type": "text"
					}
				],
				"body": {
					"mode": "raw",
					"raw": "{\n\t\"name\":\"TUGBA\",\n\t\"surname\":\"AYYILDIZ\",\n\t\"schoolNumber\":234\n}\n"
				},
				"url": {
					"raw": "http://localhost:8080/HelloSpringRest_war_exploded/adress/7/students",
					"protocol": "http",
					"host": [
						"localhost"
					],
					"port": "8080",
					"path": [
						"HelloSpringRest_war_exploded",
						"adress",
						"7",
						"students"
					]
				}
			},
			"response": []
		}
	]
}